…
``` r
# Don't do any averaging!
d_hier <- filter(
  chlorella_tpc,
  process == 'adaptation',
  growth_temp == 33,
  flux == 'photosynthesis'
) %>%
  mutate(curve_id = as.factor(curve_id)) %>%
  as_tibble()
d_hier
```

    ## # A tibble: 30 × 6
    ##    curve_id growth_temp process    flux            temp  rate
    ##    <fct>          <dbl> <chr>      <chr>          <dbl> <dbl>
    ##  1 58                33 adaptation photosynthesis    16 0.221
    ##  2 58                33 adaptation photosynthesis    19 0.300
    ##  3 58                33 adaptation photosynthesis    22 0.622
    ##  4 58                33 adaptation photosynthesis    25 0.876
    ##  5 58                33 adaptation photosynthesis    28 1.09 
    ##  6 58                33 adaptation photosynthesis    31 1.40 
    ##  7 58                33 adaptation photosynthesis    34 1.50 
    ##  8 58                33 adaptation photosynthesis    37 1.89 
    ##  9 58                33 adaptation photosynthesis    40 2.50 
    ## 10 58                33 adaptation photosynthesis    43 0.851
    ## # ℹ 20 more rows
…
