…
d_hier <- filter(
  chlorella_tpc,
  process == 'adaptation',
  growth_temp %in% c(27, 30, 33),
  flux == 'photosynthesis'
) %>%
  mutate(curve_id = as.factor(curve_id)) %>%
  as_tibble()
d_hier
```

    ## # A tibble: 96 × 6
    ##    curve_id growth_temp process    flux            temp  rate
    ##    <fct>          <dbl> <chr>      <chr>          <dbl> <dbl>
    ##  1 52                27 adaptation photosynthesis    16 0.332
    ##  2 52                27 adaptation photosynthesis    19 0.550
    ##  3 52                27 adaptation photosynthesis    22 0.856
    ##  4 52                27 adaptation photosynthesis    25 1.14 
    ##  5 52                27 adaptation photosynthesis    28 1.57 
    ##  6 52                27 adaptation photosynthesis    31 1.50 
    ##  7 52                27 adaptation photosynthesis    34 1.51 
    ##  8 52                27 adaptation photosynthesis    37 1.92 
    ##  9 52                27 adaptation photosynthesis    40 2.42 
    ## 10 52                27 adaptation photosynthesis    43 1.42 
    ## # ℹ 86 more rows
…
